{
  "images" : [
    {
      "idiom" : "universal",
      "scale" : "1x",
      "filename" : "tumblr_miy0fv2jmm1s5jjtzo1_1280-1.png"
    },
    {
      "idiom" : "universal",
      "scale" : "2x",
      "filename" : "tumblr_miy0fv2jmm1s5jjtzo1_1280.png"
    }
  ],
  "info" : {
    "version" : 1,
    "author" : "xcode"
  }
}